{
  "ast": null,
  "code": "import _defineProperty from \"@babel/runtime/helpers/defineProperty\";\nfunction ownKeys(object, enumerableOnly) { var keys = Object.keys(object); if (Object.getOwnPropertySymbols) { var symbols = Object.getOwnPropertySymbols(object); enumerableOnly && (symbols = symbols.filter(function (sym) { return Object.getOwnPropertyDescriptor(object, sym).enumerable; })), keys.push.apply(keys, symbols); } return keys; }\nfunction _objectSpread(target) { for (var i = 1; i < arguments.length; i++) { var source = null != arguments[i] ? arguments[i] : {}; i % 2 ? ownKeys(Object(source), !0).forEach(function (key) { _defineProperty(target, key, source[key]); }) : Object.getOwnPropertyDescriptors ? Object.defineProperties(target, Object.getOwnPropertyDescriptors(source)) : ownKeys(Object(source)).forEach(function (key) { Object.defineProperty(target, key, Object.getOwnPropertyDescriptor(source, key)); }); } return target; }\nimport { getItemCount } from '@react-stately/collections';\nimport { getItemId } from \"./utils\";\nimport { isFocusVisible } from '@react-aria/interactions';\nimport { useHover, usePress } from '@react-native-aria/interactions';\nimport { isMac, isWebKit, mergeProps, useSlotId } from '@react-aria/utils';\nimport { useSelectableItem } from '@react-aria/selection';\nimport { useMapDomPropsToRN } from '@react-native-aria/utils';\nexport function useOption(props, state, ref) {\n  var isSelected = props.isSelected,\n    isDisabled = props.isDisabled,\n    key = props.key,\n    shouldSelectOnPressUp = props.shouldSelectOnPressUp,\n    shouldFocusOnHover = props.shouldFocusOnHover,\n    isVirtualized = props.isVirtualized,\n    shouldUseVirtualFocus = props.shouldUseVirtualFocus;\n  var labelId = useSlotId();\n  var descriptionId = useSlotId();\n  var _optionProps = {\n    'role': 'option',\n    'aria-disabled': isDisabled,\n    'aria-selected': isSelected\n  };\n  if (!(isMac() && isWebKit())) {\n    _optionProps['aria-label'] = props['aria-label'];\n    _optionProps['aria-labelledby'] = labelId;\n    _optionProps['aria-describedby'] = descriptionId;\n  }\n  if (isVirtualized) {\n    _optionProps['aria-posinset'] = state.collection.getItem(key).index + 1;\n    _optionProps['aria-setsize'] = getItemCount(state.collection);\n  }\n  var _useSelectableItem = useSelectableItem({\n      selectionManager: state.selectionManager,\n      key: key,\n      ref: ref,\n      shouldSelectOnPressUp: shouldSelectOnPressUp,\n      isVirtualized: isVirtualized,\n      shouldUseVirtualFocus: shouldUseVirtualFocus\n    }),\n    itemProps = _useSelectableItem.itemProps;\n  var _usePress = usePress(_objectSpread(_objectSpread({}, itemProps), {}, {\n      isDisabled: isDisabled,\n      preventFocusOnPress: shouldUseVirtualFocus\n    })),\n    pressProps = _usePress.pressProps;\n  var _useHover = useHover({\n      isDisabled: isDisabled || !shouldFocusOnHover,\n      onHoverStart: function onHoverStart() {\n        if (!isFocusVisible()) {\n          state.selectionManager.setFocused(true);\n          state.selectionManager.setFocusedKey(key);\n        }\n      }\n    }, ref),\n    hoverProps = _useHover.hoverProps;\n  var onMouseDown = function onMouseDown(e) {\n    return e.stopPropagation();\n  };\n  _optionProps = _objectSpread(_objectSpread(_objectSpread({}, _optionProps), mergeProps(pressProps, hoverProps)), {}, {\n    id: getItemId(state, key),\n    onMouseDown: onMouseDown\n  });\n  var optionProps = useMapDomPropsToRN(_optionProps, ref);\n  return {\n    optionProps: optionProps,\n    labelProps: {\n      nativeID: labelId\n    },\n    descriptionProps: {\n      nativeID: descriptionId\n    }\n  };\n}",
  "map": {
    "version": 3,
    "mappings": ";;;AAAA,SAASA,YAAT,QAA6B,4BAA7B;AACA,SAASC,SAAT;AAEA,SAASC,cAAT,QAA+B,0BAA/B;AACA,SAASC,QAAT,EAAmBC,QAAnB,QAAmC,iCAAnC;AACA,SAASC,KAAT,EAAgBC,QAAhB,EAA0BC,UAA1B,EAAsCC,SAAtC,QAAuD,mBAAvD;AAEA,SAASC,iBAAT,QAAkC,uBAAlC;AACA,SAASC,kBAAT,QAAmC,0BAAnC;AA6CA,OAAO,SAASC,SAAT,CACLC,KADK,EAELC,KAFK,EAGLC,GAHK,EAIO;EACZ,IACEC,UADE,GAQAH,KARJ,CACEG,UADE;IAEFC,UAFE,GAQAJ,KARJ,CAEEI,UAFE;IAGFC,GAHE,GAQAL,KARJ,CAGEK,GAHE;IAIFC,qBAJE,GAQAN,KARJ,CAIEM,qBAJE;IAKFC,kBALE,GAQAP,KARJ,CAKEO,kBALE;IAMFC,aANE,GAQAR,KARJ,CAMEQ,aANE;IAOFC,wBACET,KARJ,CAOES;EAGF,IAAIC,OAAO,GAAGd,SAAS,EAAvB;EACA,IAAIe,aAAa,GAAGf,SAAS,EAA7B;EAEA,IAAIgB,YAAiB,GAAG;IACtB,QAAQ,QADc;IAEtB,iBAAiBR,UAFK;IAGtB,iBAAiBD;EAHK,CAAxB;EASA,IAAI,EAAEV,KAAK,MAAMC,QAAQ,EAArB,CAAJ,EAA8B;IAC5BkB,YAAY,CAAC,YAAD,CAAZ,GAA6BZ,KAAK,CAAC,YAAD,CAAlC;IACAY,YAAY,CAAC,iBAAD,CAAZ,GAAkCF,OAAlC;IACAE,YAAY,CAAC,kBAAD,CAAZ,GAAmCD,aAAnC;EACD;EAED,IAAIH,aAAJ,EAAmB;IAEjBI,YAAY,CAAC,eAAD,CAAZ,GAAgCX,KAAK,CAACY,UAAN,CAAiBC,OAAjB,CAAyBT,GAAzB,EAA8BU,KAA9B,GAAsC,CAAtE;IACAH,YAAY,CAAC,cAAD,CAAZ,GAA+BxB,YAAY,CAACa,KAAK,CAACY,UAAP,CAA3C;EACD;EAED,yBAAoBhB,iBAAiB,CAAC;MACpCmB,gBAAgB,EAAEf,KAAK,CAACe,gBADY;MAGpCX,GAHoC,EAGpCA,GAHoC;MAIpCH,GAJoC,EAIpCA,GAJoC;MAKpCI,qBALoC,EAKpCA,qBALoC;MAMpCE,aANoC,EAMpCA,aANoC;MAOpCC;IAPoC,CAAD,CAArC;IAAMQ;EAUN,gBAAqBzB,QAAQ,iCACxByB,SADyB;MAE5Bb,UAF4B,EAE5BA,UAF4B;MAG5Bc,mBAAmB,EAAET;IAAAA,GAHvB;IAAMU;EAMN,gBAAqB5B,QAAQ,CAC3B;MACEa,UAAU,EAAEA,UAAU,IAAI,CAACG,kBAD7B;MAEEa,YAAY,0BAAG;QACb,IAAI,CAAC9B,cAAc,EAAnB,EAAuB;UACrBW,KAAK,CAACe,gBAAN,CAAuBK,UAAvB,CAAkC,IAAlC;UAEApB,KAAK,CAACe,gBAAN,CAAuBM,aAAvB,CAAqCjB,GAArC;QACD;MACF;IARH,CAD2B,EAW3BH,GAX2B,CAA7B;IAAMqB;EAmBN,IAAMC,WAAW,GAAIC,SAAfD,WAAW,CAAIC,CAAD;IAAA,OAAYA,CAAC,CAACC,eAAF,EAAhC;EAAA;EAEAd,YAAY,iDACPA,YADU,GAEVjB,UAAU,CAACwB,UAAD,EAAaI,UAAb,CAFA;IAIbI,EAAE,EAAEtC,SAAS,CAACY,KAAD,EAAQI,GAAR,CAJA;IAKbmB;EAAAA,EALF;EAQA,IAAMI,WAAW,GAAG9B,kBAAkB,CAACc,YAAD,EAAeV,GAAf,CAAtC;EAEA,OAAO;IACL0B,WADK,EACLA,WADK;IAELC,UAAU,EAAE;MACVC,QAAQ,EAAEpB;IADA,CAFP;IAKLqB,gBAAgB,EAAE;MAChBD,QAAQ,EAAEnB;IADM;EALb,CAAP;AASD",
    "names": [
      "getItemCount",
      "getItemId",
      "isFocusVisible",
      "useHover",
      "usePress",
      "isMac",
      "isWebKit",
      "mergeProps",
      "useSlotId",
      "useSelectableItem",
      "useMapDomPropsToRN",
      "useOption",
      "props",
      "state",
      "ref",
      "isSelected",
      "isDisabled",
      "key",
      "shouldSelectOnPressUp",
      "shouldFocusOnHover",
      "isVirtualized",
      "shouldUseVirtualFocus",
      "labelId",
      "descriptionId",
      "_optionProps",
      "collection",
      "getItem",
      "index",
      "selectionManager",
      "itemProps",
      "preventFocusOnPress",
      "pressProps",
      "onHoverStart",
      "setFocused",
      "setFocusedKey",
      "hoverProps",
      "onMouseDown",
      "e",
      "stopPropagation",
      "id",
      "optionProps",
      "labelProps",
      "nativeID",
      "descriptionProps"
    ],
    "sources": ["useOption.web.ts"],
    "sourcesContent": [
      "import { getItemCount } from '@react-stately/collections';\nimport { getItemId } from './utils';\nimport { Key, RefObject } from 'react';\nimport { isFocusVisible } from '@react-aria/interactions';\nimport { useHover, usePress } from '@react-native-aria/interactions';\nimport { isMac, isWebKit, mergeProps, useSlotId } from '@react-aria/utils';\nimport { ListState } from '@react-stately/list';\nimport { useSelectableItem } from '@react-aria/selection';\nimport { useMapDomPropsToRN } from '@react-native-aria/utils';\n\ninterface OptionAria {\n  /** Props for the option element. */\n  optionProps: any;\n\n  /** Props for the main text element inside the option. */\n  labelProps: any;\n\n  /** Props for the description text element inside the option, if any. */\n  descriptionProps: any;\n}\n\ninterface AriaOptionProps {\n  /** Whether the option is disabled. */\n  'isDisabled'?: boolean;\n\n  /** Whether the option is selected. */\n  'isSelected'?: boolean;\n\n  /** A screen reader only label for the option. */\n  'aria-label'?: string;\n\n  /** The unique key for the option. */\n  'key'?: Key;\n\n  /** Whether selection should occur on press up instead of press down. */\n  'shouldSelectOnPressUp'?: boolean;\n\n  /** Whether the option should be focused when the user hovers over it. */\n  'shouldFocusOnHover'?: boolean;\n\n  /** Whether the option is contained in a virtual scrolling listbox. */\n  'isVirtualized'?: boolean;\n\n  /** Whether the option should use virtual focus instead of being focused directly. */\n  'shouldUseVirtualFocus'?: boolean;\n}\n\n/**\n * Provides the behavior and accessibility implementation for an option in a listbox.\n * See `useListBox` for more details about listboxes.\n * @param props - Props for the option.\n * @param state - State for the listbox, as returned by `useListState`.\n */\nexport function useOption<T>(\n  props: AriaOptionProps,\n  state: ListState<T>,\n  ref: RefObject<HTMLElement>\n): OptionAria {\n  let {\n    isSelected,\n    isDisabled,\n    key,\n    shouldSelectOnPressUp,\n    shouldFocusOnHover,\n    isVirtualized,\n    shouldUseVirtualFocus,\n  } = props;\n\n  let labelId = useSlotId();\n  let descriptionId = useSlotId();\n\n  let _optionProps: any = {\n    'role': 'option',\n    'aria-disabled': isDisabled,\n    'aria-selected': isSelected,\n  };\n\n  // Safari with VoiceOver on macOS misreads options with aria-labelledby or aria-label as simply \"text\".\n  // We should not map slots to the label and description on Safari and instead just have VoiceOver read the textContent.\n  // https://bugs.webkit.org/show_bug.cgi?id=209279\n  if (!(isMac() && isWebKit())) {\n    _optionProps['aria-label'] = props['aria-label'];\n    _optionProps['aria-labelledby'] = labelId;\n    _optionProps['aria-describedby'] = descriptionId;\n  }\n\n  if (isVirtualized) {\n    //@ts-ignore\n    _optionProps['aria-posinset'] = state.collection.getItem(key).index + 1;\n    _optionProps['aria-setsize'] = getItemCount(state.collection);\n  }\n\n  let { itemProps } = useSelectableItem({\n    selectionManager: state.selectionManager,\n    //@ts-ignore\n    key,\n    ref,\n    shouldSelectOnPressUp,\n    isVirtualized,\n    shouldUseVirtualFocus,\n  });\n\n  let { pressProps } = usePress({\n    ...itemProps,\n    isDisabled,\n    preventFocusOnPress: shouldUseVirtualFocus,\n  });\n\n  let { hoverProps } = useHover(\n    {\n      isDisabled: isDisabled || !shouldFocusOnHover,\n      onHoverStart() {\n        if (!isFocusVisible()) {\n          state.selectionManager.setFocused(true);\n          //@ts-ignore\n          state.selectionManager.setFocusedKey(key);\n        }\n      },\n    },\n    ref\n  );\n\n  // Putting this as a last resort, after several hours of debugging.\n  // Why?\n  // tabListProps adds onMouseDown with preventDefault in useSelectableCollection.ts (React Aria) and react-native-web uses onClick for onPress.\n  // This results in tab button not getting focused when clicked\n  // See this example - https://codesandbox.io/s/issue-i-know-but-dont-know-why-1-ydyw5?file=/src/App.js\n  const onMouseDown = (e: any) => e.stopPropagation();\n\n  _optionProps = {\n    ..._optionProps,\n    ...mergeProps(pressProps, hoverProps),\n    //@ts-ignore\n    id: getItemId(state, key),\n    onMouseDown,\n  };\n\n  const optionProps = useMapDomPropsToRN(_optionProps, ref);\n\n  return {\n    optionProps,\n    labelProps: {\n      nativeID: labelId,\n    },\n    descriptionProps: {\n      nativeID: descriptionId,\n    },\n  };\n}\n"
    ]
  },
  "metadata": {},
  "sourceType": "module"
}
