{
  "ast": null,
  "code": "function _extends() {\n  _extends = Object.assign || function (target) {\n    for (var i = 1; i < arguments.length; i++) {\n      var source = arguments[i];\n      for (var key in source) {\n        if (Object.prototype.hasOwnProperty.call(source, key)) {\n          target[key] = source[key];\n        }\n      }\n    }\n    return target;\n  };\n  return _extends.apply(this, arguments);\n}\nfunction _objectWithoutPropertiesLoose(source, excluded) {\n  if (source == null) return {};\n  var target = {};\n  var sourceKeys = Object.keys(source);\n  var key, i;\n  for (i = 0; i < sourceKeys.length; i++) {\n    key = sourceKeys[i];\n    if (excluded.indexOf(key) >= 0) continue;\n    target[key] = source[key];\n  }\n  return target;\n}\nfunction _inheritsLoose(subClass, superClass) {\n  subClass.prototype = Object.create(superClass.prototype);\n  subClass.prototype.constructor = subClass;\n  _setPrototypeOf(subClass, superClass);\n}\nfunction _setPrototypeOf(o, p) {\n  _setPrototypeOf = Object.setPrototypeOf || function _setPrototypeOf(o, p) {\n    o.__proto__ = p;\n    return o;\n  };\n  return _setPrototypeOf(o, p);\n}\nimport * as React from 'react';\nimport View from \"../View\";\nvar KeyboardAvoidingView = function (_React$Component) {\n  _inheritsLoose(KeyboardAvoidingView, _React$Component);\n  function KeyboardAvoidingView() {\n    var _this;\n    for (var _len = arguments.length, args = new Array(_len), _key = 0; _key < _len; _key++) {\n      args[_key] = arguments[_key];\n    }\n    _this = _React$Component.call.apply(_React$Component, [this].concat(args)) || this;\n    _this.frame = null;\n    _this.onLayout = function (event) {\n      _this.frame = event.nativeEvent.layout;\n    };\n    return _this;\n  }\n  var _proto = KeyboardAvoidingView.prototype;\n  _proto.relativeKeyboardHeight = function relativeKeyboardHeight(keyboardFrame) {\n    var frame = this.frame;\n    if (!frame || !keyboardFrame) {\n      return 0;\n    }\n    var keyboardY = keyboardFrame.screenY - (this.props.keyboardVerticalOffset || 0);\n    return Math.max(frame.y + frame.height - keyboardY, 0);\n  };\n  _proto.onKeyboardChange = function onKeyboardChange(event) {};\n  _proto.render = function render() {\n    var _this$props = this.props,\n      behavior = _this$props.behavior,\n      contentContainerStyle = _this$props.contentContainerStyle,\n      keyboardVerticalOffset = _this$props.keyboardVerticalOffset,\n      rest = _objectWithoutPropertiesLoose(_this$props, [\"behavior\", \"contentContainerStyle\", \"keyboardVerticalOffset\"]);\n    return React.createElement(View, _extends({\n      onLayout: this.onLayout\n    }, rest));\n  };\n  return KeyboardAvoidingView;\n}(React.Component);\nexport default KeyboardAvoidingView;",
  "map": {
    "version": 3,
    "names": [
      "_extends",
      "Object",
      "assign",
      "target",
      "i",
      "arguments",
      "length",
      "source",
      "key",
      "prototype",
      "hasOwnProperty",
      "call",
      "apply",
      "_objectWithoutPropertiesLoose",
      "excluded",
      "sourceKeys",
      "keys",
      "indexOf",
      "_inheritsLoose",
      "subClass",
      "superClass",
      "create",
      "constructor",
      "_setPrototypeOf",
      "o",
      "p",
      "setPrototypeOf",
      "__proto__",
      "React",
      "View",
      "KeyboardAvoidingView",
      "_React$Component",
      "_this",
      "_len",
      "args",
      "Array",
      "_key",
      "concat",
      "frame",
      "onLayout",
      "event",
      "nativeEvent",
      "layout",
      "_proto",
      "relativeKeyboardHeight",
      "keyboardFrame",
      "keyboardY",
      "screenY",
      "props",
      "keyboardVerticalOffset",
      "Math",
      "max",
      "y",
      "height",
      "onKeyboardChange",
      "render",
      "_this$props",
      "behavior",
      "contentContainerStyle",
      "rest",
      "createElement",
      "Component"
    ],
    "sources": [
      "/home/kzr3000/dialysis-logbook-sample/node_modules/react-native-web/dist/exports/KeyboardAvoidingView/index.js"
    ],
    "sourcesContent": [
      "function _extends() { _extends = Object.assign || function (target) { for (var i = 1; i < arguments.length; i++) { var source = arguments[i]; for (var key in source) { if (Object.prototype.hasOwnProperty.call(source, key)) { target[key] = source[key]; } } } return target; }; return _extends.apply(this, arguments); }\n\nfunction _objectWithoutPropertiesLoose(source, excluded) { if (source == null) return {}; var target = {}; var sourceKeys = Object.keys(source); var key, i; for (i = 0; i < sourceKeys.length; i++) { key = sourceKeys[i]; if (excluded.indexOf(key) >= 0) continue; target[key] = source[key]; } return target; }\n\nfunction _inheritsLoose(subClass, superClass) { subClass.prototype = Object.create(superClass.prototype); subClass.prototype.constructor = subClass; _setPrototypeOf(subClass, superClass); }\n\nfunction _setPrototypeOf(o, p) { _setPrototypeOf = Object.setPrototypeOf || function _setPrototypeOf(o, p) { o.__proto__ = p; return o; }; return _setPrototypeOf(o, p); }\n\n/**\n * Copyright (c) Nicolas Gallagher.\n * Copyright (c) Facebook, Inc. and its affiliates.\n *\n * This source code is licensed under the MIT license found in the\n * LICENSE file in the root directory of this source tree.\n *\n * \n */\nimport * as React from 'react';\nimport View from '../View';\n\nvar KeyboardAvoidingView = /*#__PURE__*/function (_React$Component) {\n  _inheritsLoose(KeyboardAvoidingView, _React$Component);\n\n  function KeyboardAvoidingView() {\n    var _this;\n\n    for (var _len = arguments.length, args = new Array(_len), _key = 0; _key < _len; _key++) {\n      args[_key] = arguments[_key];\n    }\n\n    _this = _React$Component.call.apply(_React$Component, [this].concat(args)) || this;\n    _this.frame = null;\n\n    _this.onLayout = function (event) {\n      _this.frame = event.nativeEvent.layout;\n    };\n\n    return _this;\n  }\n\n  var _proto = KeyboardAvoidingView.prototype;\n\n  _proto.relativeKeyboardHeight = function relativeKeyboardHeight(keyboardFrame) {\n    var frame = this.frame;\n\n    if (!frame || !keyboardFrame) {\n      return 0;\n    }\n\n    var keyboardY = keyboardFrame.screenY - (this.props.keyboardVerticalOffset || 0);\n    return Math.max(frame.y + frame.height - keyboardY, 0);\n  };\n\n  _proto.onKeyboardChange = function onKeyboardChange(event) {};\n\n  _proto.render = function render() {\n    var _this$props = this.props,\n        behavior = _this$props.behavior,\n        contentContainerStyle = _this$props.contentContainerStyle,\n        keyboardVerticalOffset = _this$props.keyboardVerticalOffset,\n        rest = _objectWithoutPropertiesLoose(_this$props, [\"behavior\", \"contentContainerStyle\", \"keyboardVerticalOffset\"]);\n\n    return /*#__PURE__*/React.createElement(View, _extends({\n      onLayout: this.onLayout\n    }, rest));\n  };\n\n  return KeyboardAvoidingView;\n}(React.Component);\n\nexport default KeyboardAvoidingView;"
    ],
    "mappings": "AAAA,SAASA,QAAQ,GAAG;EAAEA,QAAQ,GAAGC,MAAM,CAACC,MAAM,IAAI,UAAUC,MAAM,EAAE;IAAE,KAAK,IAAIC,CAAC,GAAG,CAAC,EAAEA,CAAC,GAAGC,SAAS,CAACC,MAAM,EAAEF,CAAC,EAAE,EAAE;MAAE,IAAIG,MAAM,GAAGF,SAAS,CAACD,CAAC,CAAC;MAAE,KAAK,IAAII,GAAG,IAAID,MAAM,EAAE;QAAE,IAAIN,MAAM,CAACQ,SAAS,CAACC,cAAc,CAACC,IAAI,CAACJ,MAAM,EAAEC,GAAG,CAAC,EAAE;UAAEL,MAAM,CAACK,GAAG,CAAC,GAAGD,MAAM,CAACC,GAAG,CAAC;QAAE;MAAE;IAAE;IAAE,OAAOL,MAAM;EAAE,CAAC;EAAE,OAAOH,QAAQ,CAACY,KAAK,CAAC,IAAI,EAAEP,SAAS,CAAC;AAAE;AAE5T,SAASQ,6BAA6B,CAACN,MAAM,EAAEO,QAAQ,EAAE;EAAE,IAAIP,MAAM,IAAI,IAAI,EAAE,OAAO,CAAC,CAAC;EAAE,IAAIJ,MAAM,GAAG,CAAC,CAAC;EAAE,IAAIY,UAAU,GAAGd,MAAM,CAACe,IAAI,CAACT,MAAM,CAAC;EAAE,IAAIC,GAAG,EAAEJ,CAAC;EAAE,KAAKA,CAAC,GAAG,CAAC,EAAEA,CAAC,GAAGW,UAAU,CAACT,MAAM,EAAEF,CAAC,EAAE,EAAE;IAAEI,GAAG,GAAGO,UAAU,CAACX,CAAC,CAAC;IAAE,IAAIU,QAAQ,CAACG,OAAO,CAACT,GAAG,CAAC,IAAI,CAAC,EAAE;IAAUL,MAAM,CAACK,GAAG,CAAC,GAAGD,MAAM,CAACC,GAAG,CAAC;EAAE;EAAE,OAAOL,MAAM;AAAE;AAElT,SAASe,cAAc,CAACC,QAAQ,EAAEC,UAAU,EAAE;EAAED,QAAQ,CAACV,SAAS,GAAGR,MAAM,CAACoB,MAAM,CAACD,UAAU,CAACX,SAAS,CAAC;EAAEU,QAAQ,CAACV,SAAS,CAACa,WAAW,GAAGH,QAAQ;EAAEI,eAAe,CAACJ,QAAQ,EAAEC,UAAU,CAAC;AAAE;AAE5L,SAASG,eAAe,CAACC,CAAC,EAAEC,CAAC,EAAE;EAAEF,eAAe,GAAGtB,MAAM,CAACyB,cAAc,IAAI,SAASH,eAAe,CAACC,CAAC,EAAEC,CAAC,EAAE;IAAED,CAAC,CAACG,SAAS,GAAGF,CAAC;IAAE,OAAOD,CAAC;EAAE,CAAC;EAAE,OAAOD,eAAe,CAACC,CAAC,EAAEC,CAAC,CAAC;AAAE;AAWzK,OAAO,KAAKG,KAAK,MAAM,OAAO;AAC9B,OAAOC,IAAI;AAEX,IAAIC,oBAAoB,GAAgB,UAAUC,gBAAgB,EAAE;EAClEb,cAAc,CAACY,oBAAoB,EAAEC,gBAAgB,CAAC;EAEtD,SAASD,oBAAoB,GAAG;IAC9B,IAAIE,KAAK;IAET,KAAK,IAAIC,IAAI,GAAG5B,SAAS,CAACC,MAAM,EAAE4B,IAAI,GAAG,IAAIC,KAAK,CAACF,IAAI,CAAC,EAAEG,IAAI,GAAG,CAAC,EAAEA,IAAI,GAAGH,IAAI,EAAEG,IAAI,EAAE,EAAE;MACvFF,IAAI,CAACE,IAAI,CAAC,GAAG/B,SAAS,CAAC+B,IAAI,CAAC;IAC9B;IAEAJ,KAAK,GAAGD,gBAAgB,CAACpB,IAAI,CAACC,KAAK,CAACmB,gBAAgB,EAAE,CAAC,IAAI,CAAC,CAACM,MAAM,CAACH,IAAI,CAAC,CAAC,IAAI,IAAI;IAClFF,KAAK,CAACM,KAAK,GAAG,IAAI;IAElBN,KAAK,CAACO,QAAQ,GAAG,UAAUC,KAAK,EAAE;MAChCR,KAAK,CAACM,KAAK,GAAGE,KAAK,CAACC,WAAW,CAACC,MAAM;IACxC,CAAC;IAED,OAAOV,KAAK;EACd;EAEA,IAAIW,MAAM,GAAGb,oBAAoB,CAACrB,SAAS;EAE3CkC,MAAM,CAACC,sBAAsB,GAAG,SAASA,sBAAsB,CAACC,aAAa,EAAE;IAC7E,IAAIP,KAAK,GAAG,IAAI,CAACA,KAAK;IAEtB,IAAI,CAACA,KAAK,IAAI,CAACO,aAAa,EAAE;MAC5B,OAAO,CAAC;IACV;IAEA,IAAIC,SAAS,GAAGD,aAAa,CAACE,OAAO,IAAI,IAAI,CAACC,KAAK,CAACC,sBAAsB,IAAI,CAAC,CAAC;IAChF,OAAOC,IAAI,CAACC,GAAG,CAACb,KAAK,CAACc,CAAC,GAAGd,KAAK,CAACe,MAAM,GAAGP,SAAS,EAAE,CAAC,CAAC;EACxD,CAAC;EAEDH,MAAM,CAACW,gBAAgB,GAAG,SAASA,gBAAgB,CAACd,KAAK,EAAE,CAAC,CAAC;EAE7DG,MAAM,CAACY,MAAM,GAAG,SAASA,MAAM,GAAG;IAChC,IAAIC,WAAW,GAAG,IAAI,CAACR,KAAK;MACxBS,QAAQ,GAAGD,WAAW,CAACC,QAAQ;MAC/BC,qBAAqB,GAAGF,WAAW,CAACE,qBAAqB;MACzDT,sBAAsB,GAAGO,WAAW,CAACP,sBAAsB;MAC3DU,IAAI,GAAG9C,6BAA6B,CAAC2C,WAAW,EAAE,CAAC,UAAU,EAAE,uBAAuB,EAAE,wBAAwB,CAAC,CAAC;IAEtH,OAAoB5B,KAAK,CAACgC,aAAa,CAAC/B,IAAI,EAAE7B,QAAQ,CAAC;MACrDuC,QAAQ,EAAE,IAAI,CAACA;IACjB,CAAC,EAAEoB,IAAI,CAAC,CAAC;EACX,CAAC;EAED,OAAO7B,oBAAoB;AAC7B,CAAC,CAACF,KAAK,CAACiC,SAAS,CAAC;AAElB,eAAe/B,oBAAoB"
  },
  "metadata": {},
  "sourceType": "module"
}
