{
  "ast": null,
  "code": "import { mode } from \"../tools\";\nvar baseStyle = function baseStyle(props) {\n  return {\n    _errorMessageProps: {\n      mt: 1,\n      ml: 3,\n      fontSize: 'xs',\n      color: 'error.400'\n    },\n    _helperTextProps: {\n      mt: 1,\n      ml: 3,\n      fontSize: 'xs',\n      color: mode('muted.400', 'muted.500')(props)\n    }\n  };\n};\nexport var TextField = {\n  baseStyle: baseStyle,\n  defaultProps: {\n    component: 'input'\n  }\n};",
  "map": {
    "version": 3,
    "mappings": "AAAA,SAASA,IAAT;AAGA,IAAMC,SAAS,GAAIC,SAAbD,SAAS,CAAIC,KAAD,EAAgC;EAChD,OAAO;IACLC,kBAAkB,EAAE;MAClBC,EAAE,EAAE,CADc;MAElBC,EAAE,EAAE,CAFc;MAGlBC,QAAQ,EAAE,IAHQ;MAIlBC,KAAK,EAAE;IAJW,CADf;IAOLC,gBAAgB,EAAE;MAChBJ,EAAE,EAAE,CADY;MAEhBC,EAAE,EAAE,CAFY;MAGhBC,QAAQ,EAAE,IAHM;MAIhBC,KAAK,EAAEP,IAAI,CAAC,WAAD,EAAc,WAAd,CAAJ,CAA+BE,KAA/B;IAJS;EAPb,CAAP;AAcD,CAfD;AAiBA,OAAO,IAAMO,SAAS,GAAG;EACvBR,SADuB,EACvBA,SADuB;EAEvBS,YAAY,EAAE;IACZC,SAAS,EAAE;EADC;AAFS,CAAlB",
    "names": [
      "mode",
      "baseStyle",
      "props",
      "_errorMessageProps",
      "mt",
      "ml",
      "fontSize",
      "color",
      "_helperTextProps",
      "TextField",
      "defaultProps",
      "component"
    ],
    "sources": ["textField.ts"],
    "sourcesContent": [
      "import { mode } from '../tools';\n\n// TextField\nconst baseStyle = (props: Record<string, any>) => {\n  return {\n    _errorMessageProps: {\n      mt: 1,\n      ml: 3,\n      fontSize: 'xs',\n      color: 'error.400',\n    },\n    _helperTextProps: {\n      mt: 1,\n      ml: 3,\n      fontSize: 'xs',\n      color: mode('muted.400', 'muted.500')(props),\n    },\n  };\n};\n\nexport const TextField = {\n  baseStyle,\n  defaultProps: {\n    component: 'input',\n  },\n};\n"
    ]
  },
  "metadata": {},
  "sourceType": "module"
}
