{
  "ast": null,
  "code": "import styleResolver from \"./styleResolver\";\nvar css = {\n  create: function create(rules, group) {\n    return styleResolver.createCSS(rules, group);\n  }\n};\nexport default css;",
  "map": {
    "version": 3,
    "names": ["styleResolver", "css", "create", "rules", "group", "createCSS"],
    "sources": [
      "/home/kzr3000/dialysis-logbook-sample/node_modules/react-native-web/dist/exports/StyleSheet/css.js"
    ],
    "sourcesContent": [
      "/**\n * Copyright (c) Nicolas Gallagher.\n *\n * This source code is licensed under the MIT license found in the\n * LICENSE file in the root directory of this source tree.\n *\n * \n */\nimport styleResolver from './styleResolver';\n/**\n * A simple (and dangerous) CSS system.\n * The order of CSS rule insertion is not guaranteed.\n * Avoiding combining 2 or more classes that modify the same property.\n */\n\nvar css = {\n  /**\n   * const classes = css.create({ base: {}, extra: {} })\n   */\n  create: function create(rules, group) {\n    return styleResolver.createCSS(rules, group);\n  }\n};\nexport default css;"
    ],
    "mappings": "AAQA,OAAOA,aAAa;AAOpB,IAAIC,GAAG,GAAG;EAIRC,MAAM,EAAE,SAASA,MAAM,CAACC,KAAK,EAAEC,KAAK,EAAE;IACpC,OAAOJ,aAAa,CAACK,SAAS,CAACF,KAAK,EAAEC,KAAK,CAAC;EAC9C;AACF,CAAC;AACD,eAAeH,GAAG"
  },
  "metadata": {},
  "sourceType": "module"
}
