{
  "ast": null,
  "code": "import _objectWithoutProperties from \"@babel/runtime/helpers/objectWithoutProperties\";\nvar _excluded = [\"color\", \"size\", \"style\"];\nimport React, { memo, forwardRef } from 'react';\nimport ActivityIndicator from \"react-native-web/dist/exports/ActivityIndicator\";\nimport { usePropsResolution, useStyledSystemPropsResolver } from \"../../../hooks\";\nimport { getColor } from \"../../../theme\";\nimport { useHasResponsiveProps } from \"../../../hooks/useHasResponsiveProps\";\nimport { useTheme } from \"../../../hooks\";\nvar Spinner = function Spinner(props, ref) {\n  var _usePropsResolution = usePropsResolution('Spinner', props),\n    color = _usePropsResolution.color,\n    size = _usePropsResolution.size,\n    style = _usePropsResolution.style,\n    resolvedProps = _objectWithoutProperties(_usePropsResolution, _excluded);\n  var resolvedColor = getColor(color, useTheme().colors, useTheme());\n  var resolvedStyle = useStyledSystemPropsResolver(resolvedProps);\n  if (useHasResponsiveProps(props)) {\n    return null;\n  }\n  return React.createElement(ActivityIndicator, {\n    accessible: true,\n    accessibilityLabel: \"loading\",\n    color: resolvedColor,\n    ref: ref,\n    size: size,\n    style: [resolvedStyle, style]\n  });\n};\nexport default memo(forwardRef(Spinner));",
  "map": {
    "version": 3,
    "mappings": ";;AAAA,OAAOA,KAAP,IAAgBC,IAAhB,EAAsBC,UAAtB,QAAwC,OAAxC;AAAA;AAEA,SACEC,kBADF,EAEEC,4BAFF;AAIA,SAASC,QAAT;AAEA,SAASC,qBAAT;AACA,SAASC,QAAT;AAEA,IAAMC,OAAO,GAAG,SAAVA,OAAO,CAAIC,KAAD,EAAuBC,GAAvB,EAAoC;EAClD,0BAAiDP,kBAAkB,CACjE,SADiE,EAEjEM,KAFiE,CAAnE;IAAQE,KAAF,uBAAEA,KAAF;IAASC,IAAT,uBAASA,IAAT;IAAeC,KAAf,uBAAeA,KAAf;IAAyBC;EAI/B,IAAMC,aAAa,GAAGV,QAAQ,CAACM,KAAD,EAAQJ,QAAQ,GAAGS,MAAnB,EAA2BT,QAAQ,EAAnC,CAA9B;EACA,IAAMU,aAAa,GAAGb,4BAA4B,CAACU,aAAD,CAAlD;EAEA,IAAIR,qBAAqB,CAACG,KAAD,CAAzB,EAAkC;IAChC,OAAO,IAAP;EACD;EACD,OACET,oBAACkB,iBAAD;IACEC,UAAU,MADZ;IAEEC,kBAAkB,EAAC,SAFrB;IAGET,KAAK,EAAEI,aAHT;IAIEL,GAAG,EAAEA,GAJP;IAKEE,IAAI,EAAEA,IALR;IAMEC,KAAK,EAAE,CAACI,aAAD,EAAgBJ,KAAhB;EANT,EADF;AAUD,CArBD;AAuBA,eAAeZ,IAAI,CAACC,UAAU,CAACM,OAAD,CAAX,CAAnB",
    "names": [
      "React",
      "memo",
      "forwardRef",
      "usePropsResolution",
      "useStyledSystemPropsResolver",
      "getColor",
      "useHasResponsiveProps",
      "useTheme",
      "Spinner",
      "props",
      "ref",
      "color",
      "size",
      "style",
      "resolvedProps",
      "resolvedColor",
      "colors",
      "resolvedStyle",
      "ActivityIndicator",
      "accessible",
      "accessibilityLabel"
    ],
    "sources": ["index.tsx"],
    "sourcesContent": [
      "import React, { memo, forwardRef } from 'react';\nimport { ActivityIndicator } from 'react-native';\nimport {\n  usePropsResolution,\n  useStyledSystemPropsResolver,\n} from '../../../hooks';\nimport { getColor } from '../../../theme';\nimport type { ISpinnerProps } from './types';\nimport { useHasResponsiveProps } from '../../../hooks/useHasResponsiveProps';\nimport { useTheme } from '../../../hooks';\n\nconst Spinner = (props: ISpinnerProps, ref: any) => {\n  const { color, size, style, ...resolvedProps } = usePropsResolution(\n    'Spinner',\n    props\n  );\n  const resolvedColor = getColor(color, useTheme().colors, useTheme());\n  const resolvedStyle = useStyledSystemPropsResolver(resolvedProps);\n  //TODO: refactor for responsive prop\n  if (useHasResponsiveProps(props)) {\n    return null;\n  }\n  return (\n    <ActivityIndicator\n      accessible\n      accessibilityLabel=\"loading\"\n      color={resolvedColor}\n      ref={ref}\n      size={size}\n      style={[resolvedStyle, style]}\n    />\n  );\n};\n\nexport default memo(forwardRef(Spinner));\nexport type { ISpinnerProps };\n"
    ]
  },
  "metadata": {},
  "sourceType": "module"
}
