{
  "ast": null,
  "code": "export default {\n  baseStyle: {\n    color: 'primary.600'\n  },\n  sizes: {\n    sm: 'small',\n    lg: 'large'\n  },\n  defaultProps: {\n    size: 'small'\n  }\n};",
  "map": {
    "version": 3,
    "mappings": "AAAA,eAAe;EACbA,SAAS,EAAE;IACTC,KAAK,EAAE;EADE,CADE;EAIbC,KAAK,EAAE;IACLC,EAAE,EAAE,OADC;IAELC,EAAE,EAAE;EAFC,CAJM;EAQbC,YAAY,EAAE;IACZC,IAAI,EAAE;EADM;AARD,CAAf",
    "names": [
      "baseStyle",
      "color",
      "sizes",
      "sm",
      "lg",
      "defaultProps",
      "size"
    ],
    "sources": ["spinner.ts"],
    "sourcesContent": [
      "export default {\n  baseStyle: {\n    color: 'primary.600',\n  },\n  sizes: {\n    sm: 'small',\n    lg: 'large',\n  },\n  defaultProps: {\n    size: 'small',\n  },\n};\n"
    ]
  },
  "metadata": {},
  "sourceType": "module"
}
