{
  "ast": null,
  "code": "function _extends() {\n  _extends = Object.assign || function (target) {\n    for (var i = 1; i < arguments.length; i++) {\n      var source = arguments[i];\n      for (var key in source) {\n        if (Object.prototype.hasOwnProperty.call(source, key)) {\n          target[key] = source[key];\n        }\n      }\n    }\n    return target;\n  };\n  return _extends.apply(this, arguments);\n}\nfunction _objectWithoutPropertiesLoose(source, excluded) {\n  if (source == null) return {};\n  var target = {};\n  var sourceKeys = Object.keys(source);\n  var key, i;\n  for (i = 0; i < sourceKeys.length; i++) {\n    key = sourceKeys[i];\n    if (excluded.indexOf(key) >= 0) continue;\n    target[key] = source[key];\n  }\n  return target;\n}\nimport * as React from 'react';\nimport { canUseDOM } from 'fbjs/lib/ExecutionEnvironment';\nimport StyleSheet from \"../StyleSheet\";\nimport View from \"../View\";\nvar cssFunction = function () {\n  if (canUseDOM && window.CSS && window.CSS.supports && window.CSS.supports('top: constant(safe-area-inset-top)')) {\n    return 'constant';\n  }\n  return 'env';\n}();\nvar SafeAreaView = React.forwardRef(function (props, ref) {\n  var style = props.style,\n    rest = _objectWithoutPropertiesLoose(props, [\"style\"]);\n  return React.createElement(View, _extends({}, rest, {\n    ref: ref,\n    style: StyleSheet.compose(styles.root, style)\n  }));\n});\nSafeAreaView.displayName = 'SafeAreaView';\nvar styles = StyleSheet.create({\n  root: {\n    paddingTop: cssFunction + \"(safe-area-inset-top)\",\n    paddingRight: cssFunction + \"(safe-area-inset-right)\",\n    paddingBottom: cssFunction + \"(safe-area-inset-bottom)\",\n    paddingLeft: cssFunction + \"(safe-area-inset-left)\"\n  }\n});\nexport default SafeAreaView;",
  "map": {
    "version": 3,
    "names": [
      "_extends",
      "Object",
      "assign",
      "target",
      "i",
      "arguments",
      "length",
      "source",
      "key",
      "prototype",
      "hasOwnProperty",
      "call",
      "apply",
      "_objectWithoutPropertiesLoose",
      "excluded",
      "sourceKeys",
      "keys",
      "indexOf",
      "React",
      "canUseDOM",
      "StyleSheet",
      "View",
      "cssFunction",
      "window",
      "CSS",
      "supports",
      "SafeAreaView",
      "forwardRef",
      "props",
      "ref",
      "style",
      "rest",
      "createElement",
      "compose",
      "styles",
      "root",
      "displayName",
      "create",
      "paddingTop",
      "paddingRight",
      "paddingBottom",
      "paddingLeft"
    ],
    "sources": [
      "/home/kzr3000/dialysis-logbook-sample/node_modules/react-native-web/dist/exports/SafeAreaView/index.js"
    ],
    "sourcesContent": [
      "function _extends() { _extends = Object.assign || function (target) { for (var i = 1; i < arguments.length; i++) { var source = arguments[i]; for (var key in source) { if (Object.prototype.hasOwnProperty.call(source, key)) { target[key] = source[key]; } } } return target; }; return _extends.apply(this, arguments); }\n\nfunction _objectWithoutPropertiesLoose(source, excluded) { if (source == null) return {}; var target = {}; var sourceKeys = Object.keys(source); var key, i; for (i = 0; i < sourceKeys.length; i++) { key = sourceKeys[i]; if (excluded.indexOf(key) >= 0) continue; target[key] = source[key]; } return target; }\n\n/**\n * Copyright (c) Nicolas Gallagher.\n * Copyright (c) Facebook, Inc. and its affiliates.\n *\n * This source code is licensed under the MIT license found in the\n * LICENSE file in the root directory of this source tree.\n *\n * \n */\nimport * as React from 'react';\nimport { canUseDOM } from 'fbjs/lib/ExecutionEnvironment';\nimport StyleSheet from '../StyleSheet';\nimport View from '../View';\n\nvar cssFunction = function () {\n  if (canUseDOM && window.CSS && window.CSS.supports && window.CSS.supports('top: constant(safe-area-inset-top)')) {\n    return 'constant';\n  }\n\n  return 'env';\n}();\n\nvar SafeAreaView = /*#__PURE__*/React.forwardRef(function (props, ref) {\n  var style = props.style,\n      rest = _objectWithoutPropertiesLoose(props, [\"style\"]);\n\n  return /*#__PURE__*/React.createElement(View, _extends({}, rest, {\n    ref: ref,\n    style: StyleSheet.compose(styles.root, style)\n  }));\n});\nSafeAreaView.displayName = 'SafeAreaView';\nvar styles = StyleSheet.create({\n  root: {\n    paddingTop: cssFunction + \"(safe-area-inset-top)\",\n    paddingRight: cssFunction + \"(safe-area-inset-right)\",\n    paddingBottom: cssFunction + \"(safe-area-inset-bottom)\",\n    paddingLeft: cssFunction + \"(safe-area-inset-left)\"\n  }\n});\nexport default SafeAreaView;"
    ],
    "mappings": "AAAA,SAASA,QAAQ,GAAG;EAAEA,QAAQ,GAAGC,MAAM,CAACC,MAAM,IAAI,UAAUC,MAAM,EAAE;IAAE,KAAK,IAAIC,CAAC,GAAG,CAAC,EAAEA,CAAC,GAAGC,SAAS,CAACC,MAAM,EAAEF,CAAC,EAAE,EAAE;MAAE,IAAIG,MAAM,GAAGF,SAAS,CAACD,CAAC,CAAC;MAAE,KAAK,IAAII,GAAG,IAAID,MAAM,EAAE;QAAE,IAAIN,MAAM,CAACQ,SAAS,CAACC,cAAc,CAACC,IAAI,CAACJ,MAAM,EAAEC,GAAG,CAAC,EAAE;UAAEL,MAAM,CAACK,GAAG,CAAC,GAAGD,MAAM,CAACC,GAAG,CAAC;QAAE;MAAE;IAAE;IAAE,OAAOL,MAAM;EAAE,CAAC;EAAE,OAAOH,QAAQ,CAACY,KAAK,CAAC,IAAI,EAAEP,SAAS,CAAC;AAAE;AAE5T,SAASQ,6BAA6B,CAACN,MAAM,EAAEO,QAAQ,EAAE;EAAE,IAAIP,MAAM,IAAI,IAAI,EAAE,OAAO,CAAC,CAAC;EAAE,IAAIJ,MAAM,GAAG,CAAC,CAAC;EAAE,IAAIY,UAAU,GAAGd,MAAM,CAACe,IAAI,CAACT,MAAM,CAAC;EAAE,IAAIC,GAAG,EAAEJ,CAAC;EAAE,KAAKA,CAAC,GAAG,CAAC,EAAEA,CAAC,GAAGW,UAAU,CAACT,MAAM,EAAEF,CAAC,EAAE,EAAE;IAAEI,GAAG,GAAGO,UAAU,CAACX,CAAC,CAAC;IAAE,IAAIU,QAAQ,CAACG,OAAO,CAACT,GAAG,CAAC,IAAI,CAAC,EAAE;IAAUL,MAAM,CAACK,GAAG,CAAC,GAAGD,MAAM,CAACC,GAAG,CAAC;EAAE;EAAE,OAAOL,MAAM;AAAE;AAWlT,OAAO,KAAKe,KAAK,MAAM,OAAO;AAC9B,SAASC,SAAS,QAAQ,+BAA+B;AACzD,OAAOC,UAAU;AACjB,OAAOC,IAAI;AAEX,IAAIC,WAAW,GAAG,YAAY;EAC5B,IAAIH,SAAS,IAAII,MAAM,CAACC,GAAG,IAAID,MAAM,CAACC,GAAG,CAACC,QAAQ,IAAIF,MAAM,CAACC,GAAG,CAACC,QAAQ,CAAC,oCAAoC,CAAC,EAAE;IAC/G,OAAO,UAAU;EACnB;EAEA,OAAO,KAAK;AACd,CAAC,EAAE;AAEH,IAAIC,YAAY,GAAgBR,KAAK,CAACS,UAAU,CAAC,UAAUC,KAAK,EAAEC,GAAG,EAAE;EACrE,IAAIC,KAAK,GAAGF,KAAK,CAACE,KAAK;IACnBC,IAAI,GAAGlB,6BAA6B,CAACe,KAAK,EAAE,CAAC,OAAO,CAAC,CAAC;EAE1D,OAAoBV,KAAK,CAACc,aAAa,CAACX,IAAI,EAAErB,QAAQ,CAAC,CAAC,CAAC,EAAE+B,IAAI,EAAE;IAC/DF,GAAG,EAAEA,GAAG;IACRC,KAAK,EAAEV,UAAU,CAACa,OAAO,CAACC,MAAM,CAACC,IAAI,EAAEL,KAAK;EAC9C,CAAC,CAAC,CAAC;AACL,CAAC,CAAC;AACFJ,YAAY,CAACU,WAAW,GAAG,cAAc;AACzC,IAAIF,MAAM,GAAGd,UAAU,CAACiB,MAAM,CAAC;EAC7BF,IAAI,EAAE;IACJG,UAAU,EAAEhB,WAAW,GAAG,uBAAuB;IACjDiB,YAAY,EAAEjB,WAAW,GAAG,yBAAyB;IACrDkB,aAAa,EAAElB,WAAW,GAAG,0BAA0B;IACvDmB,WAAW,EAAEnB,WAAW,GAAG;EAC7B;AACF,CAAC,CAAC;AACF,eAAeI,YAAY"
  },
  "metadata": {},
  "sourceType": "module"
}
