{
  "ast": null,
  "code": "import Badge from \"./badge\";\nimport Platform from \"react-native-web/dist/exports/Platform\";\nvar variants = Badge.variants,\n  defaultProps = Badge.defaultProps;\nvar baseStyle = {\n  _text: {\n    fontFamily: Platform.OS === 'ios' ? 'Courier' : 'monospace',\n    fontSize: 'sm'\n  },\n  borderRadius: 'sm',\n  px: 2,\n  py: 1\n};\nexport default {\n  baseStyle: baseStyle,\n  variants: variants,\n  defaultProps: defaultProps\n};",
  "map": {
    "version": 3,
    "mappings": "AAAA,OAAOA,KAAP;AAAA;AAGA,IAAQC,QAAF,GAA6BD,KAAnC,CAAQC,QAAF;EAAYC,eAAiBF,KAAnC,CAAkBE;AAElB,IAAMC,SAAS,GAAG;EAChBC,KAAK,EAAE;IACLC,UAAU,EAAEC,QAAQ,CAACC,EAAT,KAAgB,KAAhB,GAAwB,SAAxB,GAAoC,WAD3C;IAELC,QAAQ,EAAE;EAFL,CADS;EAKhBC,YAAY,EAAE,IALE;EAMhBC,EAAE,EAAE,CANY;EAOhBC,EAAE,EAAE;AAPY,CAAlB;AAUA,eAAe;EACbR,SADa,EACbA,SADa;EAEbF,QAFa,EAEbA,QAFa;EAGbC;AAHa,CAAf",
    "names": [
      "Badge",
      "variants",
      "defaultProps",
      "baseStyle",
      "_text",
      "fontFamily",
      "Platform",
      "OS",
      "fontSize",
      "borderRadius",
      "px",
      "py"
    ],
    "sources": ["code.ts"],
    "sourcesContent": [
      "import Badge from './badge';\nimport { Platform } from 'react-native';\n\nconst { variants, defaultProps } = Badge;\n\nconst baseStyle = {\n  _text: {\n    fontFamily: Platform.OS === 'ios' ? 'Courier' : 'monospace',\n    fontSize: 'sm',\n  },\n  borderRadius: 'sm',\n  px: 2,\n  py: 1,\n};\n\nexport default {\n  baseStyle,\n  variants,\n  defaultProps,\n};\n"
    ]
  },
  "metadata": {},
  "sourceType": "module"
}
