{
  "ast": null,
  "code": "var breakpoints = {\n  'base': 0,\n  'sm': 480,\n  'md': 768,\n  'lg': 992,\n  'xl': 1280,\n  '2xl': 1536\n};\nexport default breakpoints;",
  "map": {
    "version": 3,
    "mappings": "AAAA,IAAMA,WAAW,GAAG;EAClB,QAAQ,CADU;EAElB,MAAM,GAFY;EAGlB,MAAM,GAHY;EAIlB,MAAM,GAJY;EAKlB,MAAM,IALY;EAMlB,OAAO;AANW,CAApB;AAUA,eAAeA,WAAf",
    "names": ["breakpoints"],
    "sources": ["breakpoints.ts"],
    "sourcesContent": [
      "const breakpoints = {\n  'base': 0,\n  'sm': 480,\n  'md': 768,\n  'lg': 992,\n  'xl': 1280,\n  '2xl': 1536,\n};\nexport type IBreakpoint = keyof typeof breakpoints;\n\nexport default breakpoints;\n"
    ]
  },
  "metadata": {},
  "sourceType": "module"
}
