{
  "ast": null,
  "code": "export default function pick(obj, list) {\n  var nextObj = {};\n  for (var key in obj) {\n    if (obj.hasOwnProperty(key)) {\n      if (list[key] === true || key.indexOf('aria-') === 0) {\n        nextObj[key] = obj[key];\n      }\n    }\n  }\n  return nextObj;\n}",
  "map": {
    "version": 3,
    "names": [
      "pick",
      "obj",
      "list",
      "nextObj",
      "key",
      "hasOwnProperty",
      "indexOf"
    ],
    "sources": [
      "/home/kzr3000/dialysis-logbook-sample/node_modules/react-native-web/dist/modules/pick/index.js"
    ],
    "sourcesContent": [
      "/**\n * Copyright (c) Nicolas Gallagher.\n *\n * This source code is licensed under the MIT license found in the\n * LICENSE file in the root directory of this source tree.\n *\n * \n */\nexport default function pick(obj, list) {\n  var nextObj = {};\n\n  for (var key in obj) {\n    if (obj.hasOwnProperty(key)) {\n      if (list[key] === true || // Temporary until ARIA is mapped to explicit props\n      key.indexOf('aria-') === 0) {\n        nextObj[key] = obj[key];\n      }\n    }\n  }\n\n  return nextObj;\n}"
    ],
    "mappings": "AAQA,eAAe,SAASA,IAAI,CAACC,GAAG,EAAEC,IAAI,EAAE;EACtC,IAAIC,OAAO,GAAG,CAAC,CAAC;EAEhB,KAAK,IAAIC,GAAG,IAAIH,GAAG,EAAE;IACnB,IAAIA,GAAG,CAACI,cAAc,CAACD,GAAG,CAAC,EAAE;MAC3B,IAAIF,IAAI,CAACE,GAAG,CAAC,KAAK,IAAI,IACtBA,GAAG,CAACE,OAAO,CAAC,OAAO,CAAC,KAAK,CAAC,EAAE;QAC1BH,OAAO,CAACC,GAAG,CAAC,GAAGH,GAAG,CAACG,GAAG,CAAC;MACzB;IACF;EACF;EAEA,OAAOD,OAAO;AAChB"
  },
  "metadata": {},
  "sourceType": "module"
}
