{
  "ast": null,
  "code": "export { useCheckbox } from \"@react-aria/checkbox\";\nexport { useCheckboxGroup } from \"./useCheckboxGroup.web\";\nexport { useCheckboxGroupItem } from \"@react-aria/checkbox\";",
  "map": {
    "version": 3,
    "mappings": "AAAA,SAASA,WAAT,QAA4B,sBAA5B;AACA,SAASC,gBAAT;AACA,SAASC,oBAAT,QAAqC,sBAArC",
    "names": ["useCheckbox", "useCheckboxGroup", "useCheckboxGroupItem"],
    "sources": ["index.web.ts"],
    "sourcesContent": [
      "export { useCheckbox } from \"@react-aria/checkbox\";\nexport { useCheckboxGroup } from \"./useCheckboxGroup.web\";\nexport { useCheckboxGroupItem } from \"@react-aria/checkbox\";\n"
    ]
  },
  "metadata": {},
  "sourceType": "module"
}
