{
  "ast": null,
  "code": "import { createIcon } from \"../createIcon\";\nexport var DeleteIcon = createIcon({\n  viewBox: '0 0 16 20',\n  d: 'M1.11111 17.7778C1.11111 19 2.11111 20 3.33333 20H12.2222C13.4444 20 14.4444 19 14.4444 17.7778V4.44444H1.11111V17.7778ZM15.5556 1.11111H11.6667L10.5556 0H5L3.88889 1.11111H0V3.33333H15.5556V1.11111Z'\n});",
  "map": {
    "version": 3,
    "mappings": "AAAA,SAASA,UAAT;AAEA,OAAO,IAAMC,UAAU,GAAGD,UAAU,CAAC;EACnCE,OAAO,EAAE,WAD0B;EAEnCC,CAAC,EACC;AAHiC,CAAD,CAA7B",
    "names": ["createIcon", "DeleteIcon", "viewBox", "d"],
    "sources": ["Delete.tsx"],
    "sourcesContent": [
      "import { createIcon } from '../createIcon';\n\nexport const DeleteIcon = createIcon({\n  viewBox: '0 0 16 20',\n  d:\n    'M1.11111 17.7778C1.11111 19 2.11111 20 3.33333 20H12.2222C13.4444 20 14.4444 19 14.4444 17.7778V4.44444H1.11111V17.7778ZM15.5556 1.11111H11.6667L10.5556 0H5L3.88889 1.11111H0V3.33333H15.5556V1.11111Z',\n});\n"
    ]
  },
  "metadata": {},
  "sourceType": "module"
}
