{
  "ast": null,
  "code": "import { mode } from \"../tools\";\nvar baseStyle = function baseStyle(props) {\n  return {\n    color: mode('muted.800', 'muted.100')(props)\n  };\n};\nvar sizes = {\n  'xxs': 2,\n  'xs': 4,\n  'sm': 6,\n  'md': 8,\n  'lg': 10,\n  'xl': 12,\n  '2xl': 16,\n  '3xl': 20,\n  '4xl': 24,\n  '5xl': 32,\n  '6xl': 64\n};\nvar defaultProps = {\n  size: 'md'\n};\nexport default {\n  baseStyle: baseStyle,\n  sizes: sizes,\n  defaultProps: defaultProps\n};",
  "map": {
    "version": 3,
    "mappings": "AAAA,SAASA,IAAT;AAEA,IAAMC,SAAS,GAAIC,SAAbD,SAAS,CAAIC,KAAD,EAAgC;EAChD,OAAO;IACLC,KAAK,EAAEH,IAAI,CAAC,WAAD,EAAc,WAAd,CAAJ,CAA+BE,KAA/B;EADF,CAAP;AAGD,CAJD;AAMA,IAAME,KAAK,GAAG;EACZ,OAAO,CADK;EAEZ,MAAM,CAFM;EAGZ,MAAM,CAHM;EAIZ,MAAM,CAJM;EAKZ,MAAM,EALM;EAMZ,MAAM,EANM;EAOZ,OAAO,EAPK;EAQZ,OAAO,EARK;EASZ,OAAO,EATK;EAUZ,OAAO,EAVK;EAWZ,OAAO;AAXK,CAAd;AAcA,IAAMC,YAAY,GAAG;EAAEC,IAAI,EAAE;AAAR,CAArB;AACA,eAAe;EAAEL,SAAF,EAAEA,SAAF;EAAaG,KAAb,EAAaA,KAAb;EAAoBC;AAApB,CAAf",
    "names": [
      "mode",
      "baseStyle",
      "props",
      "color",
      "sizes",
      "defaultProps",
      "size"
    ],
    "sources": ["icon.ts"],
    "sourcesContent": [
      "import { mode } from '../tools';\n\nconst baseStyle = (props: Record<string, any>) => {\n  return {\n    color: mode('muted.800', 'muted.100')(props),\n  };\n};\n\nconst sizes = {\n  'xxs': 2,\n  'xs': 4,\n  'sm': 6,\n  'md': 8,\n  'lg': 10,\n  'xl': 12,\n  '2xl': 16,\n  '3xl': 20,\n  '4xl': 24,\n  '5xl': 32,\n  '6xl': 64,\n};\n\nconst defaultProps = { size: 'md' };\nexport default { baseStyle, sizes, defaultProps };\n"
    ]
  },
  "metadata": {},
  "sourceType": "module"
}
