{
  "ast": null,
  "code": "function ownKeys(object, enumerableOnly) {\n  var keys = Object.keys(object);\n  if (Object.getOwnPropertySymbols) {\n    var symbols = Object.getOwnPropertySymbols(object);\n    if (enumerableOnly) symbols = symbols.filter(function (sym) {\n      return Object.getOwnPropertyDescriptor(object, sym).enumerable;\n    });\n    keys.push.apply(keys, symbols);\n  }\n  return keys;\n}\nfunction _objectSpread(target) {\n  for (var i = 1; i < arguments.length; i++) {\n    var source = arguments[i] != null ? arguments[i] : {};\n    if (i % 2) {\n      ownKeys(Object(source), true).forEach(function (key) {\n        _defineProperty(target, key, source[key]);\n      });\n    } else if (Object.getOwnPropertyDescriptors) {\n      Object.defineProperties(target, Object.getOwnPropertyDescriptors(source));\n    } else {\n      ownKeys(Object(source)).forEach(function (key) {\n        Object.defineProperty(target, key, Object.getOwnPropertyDescriptor(source, key));\n      });\n    }\n  }\n  return target;\n}\nfunction _defineProperty(obj, key, value) {\n  if (key in obj) {\n    Object.defineProperty(obj, key, {\n      value: value,\n      enumerable: true,\n      configurable: true,\n      writable: true\n    });\n  } else {\n    obj[key] = value;\n  }\n  return obj;\n}\nimport UIManager from \"../../exports/UIManager\";\nimport createDOMProps from \"../createDOMProps\";\nimport useStable from \"../useStable\";\nimport { useRef } from 'react';\nvar emptyObject = {};\nfunction setNativeProps(node, nativeProps, classList, pointerEvents, style, previousStyleRef) {\n  if (node != null && nativeProps) {\n    var domProps = createDOMProps(null, _objectSpread(_objectSpread({\n      pointerEvents: pointerEvents\n    }, nativeProps), {}, {\n      classList: [classList, nativeProps.className],\n      style: [style, nativeProps.style]\n    }));\n    var nextDomStyle = domProps.style;\n    if (previousStyleRef.current != null) {\n      if (domProps.style == null) {\n        domProps.style = {};\n      }\n      for (var styleName in previousStyleRef.current) {\n        if (domProps.style[styleName] == null) {\n          domProps.style[styleName] = '';\n        }\n      }\n    }\n    previousStyleRef.current = nextDomStyle;\n    UIManager.updateView(node, domProps);\n  }\n}\nexport default function usePlatformMethods(_ref) {\n  var classList = _ref.classList,\n    pointerEvents = _ref.pointerEvents,\n    style = _ref.style;\n  var previousStyleRef = useRef(null);\n  var setNativePropsArgsRef = useRef(null);\n  setNativePropsArgsRef.current = {\n    classList: classList,\n    pointerEvents: pointerEvents,\n    style: style\n  };\n  var ref = useStable(function () {\n    return function (hostNode) {\n      if (hostNode != null) {\n        hostNode.measure = function (callback) {\n          return UIManager.measure(hostNode, callback);\n        };\n        hostNode.measureLayout = function (relativeToNode, success, failure) {\n          return UIManager.measureLayout(hostNode, relativeToNode, failure, success);\n        };\n        hostNode.measureInWindow = function (callback) {\n          return UIManager.measureInWindow(hostNode, callback);\n        };\n        hostNode.setNativeProps = function (nativeProps) {\n          var _ref2 = setNativePropsArgsRef.current || emptyObject,\n            classList = _ref2.classList,\n            style = _ref2.style,\n            pointerEvents = _ref2.pointerEvents;\n          setNativeProps(hostNode, nativeProps, classList, pointerEvents, style, previousStyleRef);\n        };\n      }\n    };\n  });\n  return ref;\n}",
  "map": {
    "version": 3,
    "names": [
      "ownKeys",
      "object",
      "enumerableOnly",
      "keys",
      "Object",
      "getOwnPropertySymbols",
      "symbols",
      "filter",
      "sym",
      "getOwnPropertyDescriptor",
      "enumerable",
      "push",
      "apply",
      "_objectSpread",
      "target",
      "i",
      "arguments",
      "length",
      "source",
      "forEach",
      "key",
      "_defineProperty",
      "getOwnPropertyDescriptors",
      "defineProperties",
      "defineProperty",
      "obj",
      "value",
      "configurable",
      "writable",
      "UIManager",
      "createDOMProps",
      "useStable",
      "useRef",
      "emptyObject",
      "setNativeProps",
      "node",
      "nativeProps",
      "classList",
      "pointerEvents",
      "style",
      "previousStyleRef",
      "domProps",
      "className",
      "nextDomStyle",
      "current",
      "styleName",
      "updateView",
      "usePlatformMethods",
      "_ref",
      "setNativePropsArgsRef",
      "ref",
      "hostNode",
      "measure",
      "callback",
      "measureLayout",
      "relativeToNode",
      "success",
      "failure",
      "measureInWindow",
      "_ref2"
    ],
    "sources": [
      "/home/kzr3000/dialysis-logbook-sample/node_modules/react-native-web/dist/modules/usePlatformMethods/index.js"
    ],
    "sourcesContent": [
      "function ownKeys(object, enumerableOnly) { var keys = Object.keys(object); if (Object.getOwnPropertySymbols) { var symbols = Object.getOwnPropertySymbols(object); if (enumerableOnly) symbols = symbols.filter(function (sym) { return Object.getOwnPropertyDescriptor(object, sym).enumerable; }); keys.push.apply(keys, symbols); } return keys; }\n\nfunction _objectSpread(target) { for (var i = 1; i < arguments.length; i++) { var source = arguments[i] != null ? arguments[i] : {}; if (i % 2) { ownKeys(Object(source), true).forEach(function (key) { _defineProperty(target, key, source[key]); }); } else if (Object.getOwnPropertyDescriptors) { Object.defineProperties(target, Object.getOwnPropertyDescriptors(source)); } else { ownKeys(Object(source)).forEach(function (key) { Object.defineProperty(target, key, Object.getOwnPropertyDescriptor(source, key)); }); } } return target; }\n\nfunction _defineProperty(obj, key, value) { if (key in obj) { Object.defineProperty(obj, key, { value: value, enumerable: true, configurable: true, writable: true }); } else { obj[key] = value; } return obj; }\n\n/**\n * Copyright (c) Nicolas Gallagher.\n *\n * This source code is licensed under the MIT license found in the\n * LICENSE file in the root directory of this source tree.\n *\n * \n */\nimport UIManager from '../../exports/UIManager';\nimport createDOMProps from '../createDOMProps';\nimport useStable from '../useStable';\nimport { useRef } from 'react';\nvar emptyObject = {};\n\nfunction setNativeProps(node, nativeProps, classList, pointerEvents, style, previousStyleRef) {\n  if (node != null && nativeProps) {\n    var domProps = createDOMProps(null, _objectSpread(_objectSpread({\n      pointerEvents: pointerEvents\n    }, nativeProps), {}, {\n      classList: [classList, nativeProps.className],\n      style: [style, nativeProps.style]\n    }));\n    var nextDomStyle = domProps.style;\n\n    if (previousStyleRef.current != null) {\n      if (domProps.style == null) {\n        domProps.style = {};\n      }\n\n      for (var styleName in previousStyleRef.current) {\n        if (domProps.style[styleName] == null) {\n          domProps.style[styleName] = '';\n        }\n      }\n    }\n\n    previousStyleRef.current = nextDomStyle;\n    UIManager.updateView(node, domProps);\n  }\n}\n/**\n * Adds non-standard methods to the hode element. This is temporarily until an\n * API like `ReactNative.measure(hostRef, callback)` is added to React Native.\n */\n\n\nexport default function usePlatformMethods(_ref) {\n  var classList = _ref.classList,\n      pointerEvents = _ref.pointerEvents,\n      style = _ref.style;\n  var previousStyleRef = useRef(null);\n  var setNativePropsArgsRef = useRef(null);\n  setNativePropsArgsRef.current = {\n    classList: classList,\n    pointerEvents: pointerEvents,\n    style: style\n  }; // Avoid creating a new ref on every render. The props only need to be\n  // available to 'setNativeProps' when it is called.\n\n  var ref = useStable(function () {\n    return function (hostNode) {\n      if (hostNode != null) {\n        hostNode.measure = function (callback) {\n          return UIManager.measure(hostNode, callback);\n        };\n\n        hostNode.measureLayout = function (relativeToNode, success, failure) {\n          return UIManager.measureLayout(hostNode, relativeToNode, failure, success);\n        };\n\n        hostNode.measureInWindow = function (callback) {\n          return UIManager.measureInWindow(hostNode, callback);\n        };\n\n        hostNode.setNativeProps = function (nativeProps) {\n          var _ref2 = setNativePropsArgsRef.current || emptyObject,\n              classList = _ref2.classList,\n              style = _ref2.style,\n              pointerEvents = _ref2.pointerEvents;\n\n          setNativeProps(hostNode, nativeProps, classList, pointerEvents, style, previousStyleRef);\n        };\n      }\n    };\n  });\n  return ref;\n}"
    ],
    "mappings": "AAAA,SAASA,OAAO,CAACC,MAAM,EAAEC,cAAc,EAAE;EAAE,IAAIC,IAAI,GAAGC,MAAM,CAACD,IAAI,CAACF,MAAM,CAAC;EAAE,IAAIG,MAAM,CAACC,qBAAqB,EAAE;IAAE,IAAIC,OAAO,GAAGF,MAAM,CAACC,qBAAqB,CAACJ,MAAM,CAAC;IAAE,IAAIC,cAAc,EAAEI,OAAO,GAAGA,OAAO,CAACC,MAAM,CAAC,UAAUC,GAAG,EAAE;MAAE,OAAOJ,MAAM,CAACK,wBAAwB,CAACR,MAAM,EAAEO,GAAG,CAAC,CAACE,UAAU;IAAE,CAAC,CAAC;IAAEP,IAAI,CAACQ,IAAI,CAACC,KAAK,CAACT,IAAI,EAAEG,OAAO,CAAC;EAAE;EAAE,OAAOH,IAAI;AAAE;AAEpV,SAASU,aAAa,CAACC,MAAM,EAAE;EAAE,KAAK,IAAIC,CAAC,GAAG,CAAC,EAAEA,CAAC,GAAGC,SAAS,CAACC,MAAM,EAAEF,CAAC,EAAE,EAAE;IAAE,IAAIG,MAAM,GAAGF,SAAS,CAACD,CAAC,CAAC,IAAI,IAAI,GAAGC,SAAS,CAACD,CAAC,CAAC,GAAG,CAAC,CAAC;IAAE,IAAIA,CAAC,GAAG,CAAC,EAAE;MAAEf,OAAO,CAACI,MAAM,CAACc,MAAM,CAAC,EAAE,IAAI,CAAC,CAACC,OAAO,CAAC,UAAUC,GAAG,EAAE;QAAEC,eAAe,CAACP,MAAM,EAAEM,GAAG,EAAEF,MAAM,CAACE,GAAG,CAAC,CAAC;MAAE,CAAC,CAAC;IAAE,CAAC,MAAM,IAAIhB,MAAM,CAACkB,yBAAyB,EAAE;MAAElB,MAAM,CAACmB,gBAAgB,CAACT,MAAM,EAAEV,MAAM,CAACkB,yBAAyB,CAACJ,MAAM,CAAC,CAAC;IAAE,CAAC,MAAM;MAAElB,OAAO,CAACI,MAAM,CAACc,MAAM,CAAC,CAAC,CAACC,OAAO,CAAC,UAAUC,GAAG,EAAE;QAAEhB,MAAM,CAACoB,cAAc,CAACV,MAAM,EAAEM,GAAG,EAAEhB,MAAM,CAACK,wBAAwB,CAACS,MAAM,EAAEE,GAAG,CAAC,CAAC;MAAE,CAAC,CAAC;IAAE;EAAE;EAAE,OAAON,MAAM;AAAE;AAErhB,SAASO,eAAe,CAACI,GAAG,EAAEL,GAAG,EAAEM,KAAK,EAAE;EAAE,IAAIN,GAAG,IAAIK,GAAG,EAAE;IAAErB,MAAM,CAACoB,cAAc,CAACC,GAAG,EAAEL,GAAG,EAAE;MAAEM,KAAK,EAAEA,KAAK;MAAEhB,UAAU,EAAE,IAAI;MAAEiB,YAAY,EAAE,IAAI;MAAEC,QAAQ,EAAE;IAAK,CAAC,CAAC;EAAE,CAAC,MAAM;IAAEH,GAAG,CAACL,GAAG,CAAC,GAAGM,KAAK;EAAE;EAAE,OAAOD,GAAG;AAAE;AAUhN,OAAOI,SAAS;AAChB,OAAOC,cAAc;AACrB,OAAOC,SAAS;AAChB,SAASC,MAAM,QAAQ,OAAO;AAC9B,IAAIC,WAAW,GAAG,CAAC,CAAC;AAEpB,SAASC,cAAc,CAACC,IAAI,EAAEC,WAAW,EAAEC,SAAS,EAAEC,aAAa,EAAEC,KAAK,EAAEC,gBAAgB,EAAE;EAC5F,IAAIL,IAAI,IAAI,IAAI,IAAIC,WAAW,EAAE;IAC/B,IAAIK,QAAQ,GAAGX,cAAc,CAAC,IAAI,EAAEjB,aAAa,CAACA,aAAa,CAAC;MAC9DyB,aAAa,EAAEA;IACjB,CAAC,EAAEF,WAAW,CAAC,EAAE,CAAC,CAAC,EAAE;MACnBC,SAAS,EAAE,CAACA,SAAS,EAAED,WAAW,CAACM,SAAS,CAAC;MAC7CH,KAAK,EAAE,CAACA,KAAK,EAAEH,WAAW,CAACG,KAAK;IAClC,CAAC,CAAC,CAAC;IACH,IAAII,YAAY,GAAGF,QAAQ,CAACF,KAAK;IAEjC,IAAIC,gBAAgB,CAACI,OAAO,IAAI,IAAI,EAAE;MACpC,IAAIH,QAAQ,CAACF,KAAK,IAAI,IAAI,EAAE;QAC1BE,QAAQ,CAACF,KAAK,GAAG,CAAC,CAAC;MACrB;MAEA,KAAK,IAAIM,SAAS,IAAIL,gBAAgB,CAACI,OAAO,EAAE;QAC9C,IAAIH,QAAQ,CAACF,KAAK,CAACM,SAAS,CAAC,IAAI,IAAI,EAAE;UACrCJ,QAAQ,CAACF,KAAK,CAACM,SAAS,CAAC,GAAG,EAAE;QAChC;MACF;IACF;IAEAL,gBAAgB,CAACI,OAAO,GAAGD,YAAY;IACvCd,SAAS,CAACiB,UAAU,CAACX,IAAI,EAAEM,QAAQ,CAAC;EACtC;AACF;AAOA,eAAe,SAASM,kBAAkB,CAACC,IAAI,EAAE;EAC/C,IAAIX,SAAS,GAAGW,IAAI,CAACX,SAAS;IAC1BC,aAAa,GAAGU,IAAI,CAACV,aAAa;IAClCC,KAAK,GAAGS,IAAI,CAACT,KAAK;EACtB,IAAIC,gBAAgB,GAAGR,MAAM,CAAC,IAAI,CAAC;EACnC,IAAIiB,qBAAqB,GAAGjB,MAAM,CAAC,IAAI,CAAC;EACxCiB,qBAAqB,CAACL,OAAO,GAAG;IAC9BP,SAAS,EAAEA,SAAS;IACpBC,aAAa,EAAEA,aAAa;IAC5BC,KAAK,EAAEA;EACT,CAAC;EAGD,IAAIW,GAAG,GAAGnB,SAAS,CAAC,YAAY;IAC9B,OAAO,UAAUoB,QAAQ,EAAE;MACzB,IAAIA,QAAQ,IAAI,IAAI,EAAE;QACpBA,QAAQ,CAACC,OAAO,GAAG,UAAUC,QAAQ,EAAE;UACrC,OAAOxB,SAAS,CAACuB,OAAO,CAACD,QAAQ,EAAEE,QAAQ,CAAC;QAC9C,CAAC;QAEDF,QAAQ,CAACG,aAAa,GAAG,UAAUC,cAAc,EAAEC,OAAO,EAAEC,OAAO,EAAE;UACnE,OAAO5B,SAAS,CAACyB,aAAa,CAACH,QAAQ,EAAEI,cAAc,EAAEE,OAAO,EAAED,OAAO,CAAC;QAC5E,CAAC;QAEDL,QAAQ,CAACO,eAAe,GAAG,UAAUL,QAAQ,EAAE;UAC7C,OAAOxB,SAAS,CAAC6B,eAAe,CAACP,QAAQ,EAAEE,QAAQ,CAAC;QACtD,CAAC;QAEDF,QAAQ,CAACjB,cAAc,GAAG,UAAUE,WAAW,EAAE;UAC/C,IAAIuB,KAAK,GAAGV,qBAAqB,CAACL,OAAO,IAAIX,WAAW;YACpDI,SAAS,GAAGsB,KAAK,CAACtB,SAAS;YAC3BE,KAAK,GAAGoB,KAAK,CAACpB,KAAK;YACnBD,aAAa,GAAGqB,KAAK,CAACrB,aAAa;UAEvCJ,cAAc,CAACiB,QAAQ,EAAEf,WAAW,EAAEC,SAAS,EAAEC,aAAa,EAAEC,KAAK,EAAEC,gBAAgB,CAAC;QAC1F,CAAC;MACH;IACF,CAAC;EACH,CAAC,CAAC;EACF,OAAOU,GAAG;AACZ"
  },
  "metadata": {},
  "sourceType": "module"
}
